wave.vcd
$date
	Sun Jul 13 08:46:54 2025
$end
$version
	QuestaSim Version 2024.3_1
$end
$timescale
	1ps
$end

$scope module tb_bubble_sort_top $end
$var reg 1 ! clk $end
$var reg 1 " done $end
$var reg 1 # rst $end
$var reg 1 $ start $end

$scope module uut $end
$var wire 1 % clk $end
$var wire 1 & rst $end
$var wire 1 ' start $end
$var parameter 32 ( N $end
$var parameter 32 ) N_MINUS_1 $end
$var reg 16 * A [15:0] $end
$var reg 16 + B [15:0] $end
$var reg 2 , alu_op [1:0] $end
$var reg 16 - alu_result [15:0] $end
$var reg 1 . clear_eoc $end
$var reg 1 / done $end
$var reg 1 0 eoc $end
$var reg 1 1 eq $end
$var reg 1 2 gt $end
$var reg 10 3 i [9:0] $end
$var reg 10 4 j [9:0] $end
$var reg 10 5 k [9:0] $end
$var reg 1 6 load_A $end
$var reg 1 7 load_B $end
$var reg 1 8 load_i $end
$var reg 1 9 load_j $end
$var reg 1 : load_k $end
$var reg 1 ; lt $end
$var reg 10 < mem_addr [9:0] $end
$var reg 16 = mem_data_in [15:0] $end
$var reg 16 > mem_data_out [15:0] $end
$var reg 1 ? mem_read $end
$var reg 1 @ mem_write $end
$var reg 2 A mux_sel_i [1:0] $end
$var reg 2 B mux_sel_j [1:0] $end
$var reg 1 C mux_sel_k $end
$var reg 2 D mux_sel_mem_addr [1:0] $end
$var reg 1 E mux_sel_mem_data $end
$var reg 2 F mux_sel_op1 [1:0] $end
$var reg 2 G mux_sel_op2 [1:0] $end
$var reg 16 H op1 [15:0] $end
$var reg 16 I op2 [15:0] $end
$var reg 1 J preset_eoc $end

$scope module alu_unit $end
$var wire 1 K alu_op [1] $end
$var wire 1 L alu_op [0] $end
$var wire 1 M op1 [15] $end
$var wire 1 N op1 [14] $end
$var wire 1 O op1 [13] $end
$var wire 1 P op1 [12] $end
$var wire 1 Q op1 [11] $end
$var wire 1 R op1 [10] $end
$var wire 1 S op1 [9] $end
$var wire 1 T op1 [8] $end
$var wire 1 U op1 [7] $end
$var wire 1 V op1 [6] $end
$var wire 1 W op1 [5] $end
$var wire 1 X op1 [4] $end
$var wire 1 Y op1 [3] $end
$var wire 1 Z op1 [2] $end
$var wire 1 [ op1 [1] $end
$var wire 1 \ op1 [0] $end
$var wire 1 ] op2 [15] $end
$var wire 1 ^ op2 [14] $end
$var wire 1 _ op2 [13] $end
$var wire 1 ` op2 [12] $end
$var wire 1 a op2 [11] $end
$var wire 1 b op2 [10] $end
$var wire 1 c op2 [9] $end
$var wire 1 d op2 [8] $end
$var wire 1 e op2 [7] $end
$var wire 1 f op2 [6] $end
$var wire 1 g op2 [5] $end
$var wire 1 h op2 [4] $end
$var wire 1 i op2 [3] $end
$var wire 1 j op2 [2] $end
$var wire 1 k op2 [1] $end
$var wire 1 l op2 [0] $end
$var reg 1 m eq $end
$var reg 1 n gt $end
$var reg 1 o lt $end
$var reg 16 p result [15:0] $end
$upscope $end

$scope module cu $end
$var wire 1 % clk $end
$var wire 1 q eq $end
$var wire 1 r gt $end
$var wire 1 s lt $end
$var wire 1 & rst $end
$var wire 1 ' start $end
$var reg 2 t alu_op [1:0] $end
$var reg 1 u clear_eoc $end
$var reg 1 v done $end
$var reg 1 w load_A $end
$var reg 1 x load_B $end
$var reg 1 y load_i $end
$var reg 1 z load_j $end
$var reg 1 { load_k $end
$var reg 1 | mem_read $end
$var reg 1 } mem_write $end
$var reg 2 ~ mux_sel_i [1:0] $end
$var reg 2 !! mux_sel_j [1:0] $end
$var reg 1 "! mux_sel_k $end
$var reg 2 #! mux_sel_mem_addr [1:0] $end
$var reg 1 $! mux_sel_mem_data $end
$var reg 2 %! mux_sel_op1 [1:0] $end
$var reg 2 &! mux_sel_op2 [1:0] $end
$var reg 1 '! preset_eoc $end
$var reg 4 (! next [3:0] $end
$var reg 4 )! state [3:0] $end
$upscope $end

$scope module mem $end
$var wire 1 *! addr [9] $end
$var wire 1 +! addr [8] $end
$var wire 1 ,! addr [7] $end
$var wire 1 -! addr [6] $end
$var wire 1 .! addr [5] $end
$var wire 1 /! addr [4] $end
$var wire 1 0! addr [3] $end
$var wire 1 1! addr [2] $end
$var wire 1 2! addr [1] $end
$var wire 1 3! addr [0] $end
$var wire 1 % clk $end
$var wire 1 4! data_in [15] $end
$var wire 1 5! data_in [14] $end
$var wire 1 6! data_in [13] $end
$var wire 1 7! data_in [12] $end
$var wire 1 8! data_in [11] $end
$var wire 1 9! data_in [10] $end
$var wire 1 :! data_in [9] $end
$var wire 1 ;! data_in [8] $end
$var wire 1 <! data_in [7] $end
$var wire 1 =! data_in [6] $end
$var wire 1 >! data_in [5] $end
$var wire 1 ?! data_in [4] $end
$var wire 1 @! data_in [3] $end
$var wire 1 A! data_in [2] $end
$var wire 1 B! data_in [1] $end
$var wire 1 C! data_in [0] $end
$var wire 1 D! mem_read $end
$var wire 1 E! mem_write $end
$var parameter 32 F! ADDR_WIDTH $end
$var parameter 32 G! DATA_WIDTH $end
$var parameter 32 H! DEPTH $end
$var reg 16 I! data_out [15:0] $end
$upscope $end

$scope module rf $end
$var wire 1 J! alu_result [15] $end
$var wire 1 K! alu_result [14] $end
$var wire 1 L! alu_result [13] $end
$var wire 1 M! alu_result [12] $end
$var wire 1 N! alu_result [11] $end
$var wire 1 O! alu_result [10] $end
$var wire 1 P! alu_result [9] $end
$var wire 1 Q! alu_result [8] $end
$var wire 1 R! alu_result [7] $end
$var wire 1 S! alu_result [6] $end
$var wire 1 T! alu_result [5] $end
$var wire 1 U! alu_result [4] $end
$var wire 1 V! alu_result [3] $end
$var wire 1 W! alu_result [2] $end
$var wire 1 X! alu_result [1] $end
$var wire 1 Y! alu_result [0] $end
$var wire 1 % clk $end
$var wire 1 Z! load_A $end
$var wire 1 [! load_B $end
$var wire 1 \! load_i $end
$var wire 1 ]! load_j $end
$var wire 1 ^! load_k $end
$var wire 1 _! mem_data_in [15] $end
$var wire 1 `! mem_data_in [14] $end
$var wire 1 a! mem_data_in [13] $end
$var wire 1 b! mem_data_in [12] $end
$var wire 1 c! mem_data_in [11] $end
$var wire 1 d! mem_data_in [10] $end
$var wire 1 e! mem_data_in [9] $end
$var wire 1 f! mem_data_in [8] $end
$var wire 1 g! mem_data_in [7] $end
$var wire 1 h! mem_data_in [6] $end
$var wire 1 i! mem_data_in [5] $end
$var wire 1 j! mem_data_in [4] $end
$var wire 1 k! mem_data_in [3] $end
$var wire 1 l! mem_data_in [2] $end
$var wire 1 m! mem_data_in [1] $end
$var wire 1 n! mem_data_in [0] $end
$var wire 1 o! mux_sel_i [1] $end
$var wire 1 p! mux_sel_i [0] $end
$var wire 1 q! mux_sel_j [1] $end
$var wire 1 r! mux_sel_j [0] $end
$var wire 1 s! mux_sel_k $end
$var wire 1 & rst $end
$var reg 16 t! A [15:0] $end
$var reg 16 u! B [15:0] $end
$var reg 10 v! i [9:0] $end
$var reg 10 w! i_next [9:0] $end
$var reg 10 x! j [9:0] $end
$var reg 10 y! j_next [9:0] $end
$var reg 10 z! k [9:0] $end
$var reg 10 {! zero_10 [9:0] $end
$upscope $end
$upscope $end
$upscope $end
$enddefinitions $end
#0
$dumpvars
0'
1&
0%
0C!
0B!
0A!
0@!
0?!
0>!
0=!
0<!
0;!
0:!
09!
08!
07!
06!
05!
04!
03!
02!
01!
00!
0/!
0.!
0-!
0,!
0+!
0*!
0E!
0D!
0L
0K
0l
0k
0j
0i
0h
0g
0f
0e
0d
0c
0b
0a
0`
0_
0^
0]
0\
0[
0Z
0Y
0X
0W
0V
0U
0T
0S
0R
0Q
0P
0O
0N
0M
0[!
0Z!
0^!
0]!
0\!
0s!
0r!
0q!
0p!
0o!
0n!
0m!
0l!
0k!
0j!
0i!
0h!
0g!
0f!
0e!
0d!
0c!
0b!
0a!
0`!
0_!
0Y!
0X!
0W!
0V!
0U!
0T!
0S!
0R!
0Q!
0P!
0O!
0N!
0M!
0L!
0K!
0J!
0q
0r
0s
0!
0"
1#
0$
b1010 (
b1001 )
b0 *
b0 +
b0 ,
b0 -
1.
0/
00
01
02
b0 3
b0 4
b0 5
06
07
08
09
0:
0;
b0 <
b0 =
b0 >
0?
0@
b0 A
b0 B
0C
b0 D
0E
b0 F
b0 G
b0 H
b0 I
0J
0m
0n
0o
b0 p
b0 t
1u
0v
0w
0x
0y
0z
0{
0|
0}
b0 ~
b0 !!
0"!
b0 #!
0$!
b0 %!
b0 &!
0'!
b0 (!
b0 )!
b1010 F!
b10000 G!
b10000000000 H!
b0 I!
b0 t!
b0 u!
b0 v!
b0 w!
b0 x!
b0 y!
b0 z!
b0 {!
$end
#5000
1!
1%
#10000
0!
0%
#15000
1!
1%
#20000
0#
0!
0&
0%
#25000
1!
1%
#30000
1$
0!
1'
0%
b1 (!
#35000
1!
1%
b1 )!
b10 (!
0u
1z
19
0.
1]!
#40000
0$
0!
0'
0%
b10 (!
#45000
1!
1%
b10 )!
b1100 (!
0z
b1 %!
b1 &!
b1 t
b1 ,
b1 G
b1 F
09
0]!
1L
1m
b1001 I
11
1q
1l
1i
0m
1o
1;
01
0q
1s
b11 (!
#50000
0!
0%
#55000
1!
1%
b11 )!
b100 (!
b0 %!
b0 &!
b0 t
1y
18
b0 ,
b0 G
b0 F
1\!
0L
0o
b1001 p
b0 I
b1001 -
0;
1Y!
1V!
0l
0i
0s
b100 (!
b0 p
b0 -
0Y!
0V!
#60000
0!
0%
#65000
1!
1%
b100 )!
b1011 (!
0y
b1 &!
b1 t
b1 ,
b1 G
08
0\!
1L
1m
b1001 I
11
1q
1l
1i
0m
1o
1;
01
0q
1s
b101 (!
#70000
0!
0%
#75000
1!
1%
b101 )!
b110 (!
b10 &!
b0 t
1|
1w
1{
1:
16
1?
b0 ,
b10 G
1^!
1Z!
1D!
b101100 I!
b101100 >
1l!
1k!
1i!
0L
0o
b1001 p
b1 I
b1001 -
0;
1Y!
1V!
0i
0s
b110 (!
b1 p
b1 -
0V!
#80000
0!
0%
#85000
1!
1%
b110 )!
b101100 t!
b1 z!
b1 5
b101100 *
b111 (!
0{
0w
b0 &!
1|
b10 #!
1x
17
b10 D
b0 G
06
0:
1[!
0Z!
0^!
b0 I
b1 <
13!
b110111 I!
b110111 >
1n!
1m!
0k!
1j!
0l
b0 p
b0 -
0Y!
#90000
0!
0%
#95000
1!
1%
b111 )!
b110111 u!
b110111 +
b110111 =
1C!
1B!
1A!
1?!
1>!
b110111 I
b1010 (!
0x
b0 #!
0|
b10 %!
b1 t
b1 ,
b10 F
0?
b0 D
07
0D!
0[!
b0 I!
b0 >
0n!
0m!
0l!
0j!
0i!
1L
1l
1k
1j
1h
1g
1o
b0 <
b101100 H
1;
03!
1Z
1Y
1W
1s
b1010 (!
1o
#100000
0!
0%
#105000
1!
1%
b1010 )!
b100 (!
b0 %!
b0 t
b10 &!
b1 ~
1y
18
b1 A
b10 G
b0 ,
b0 F
1\!
0L
1p!
0o
b1100011 p
b0 H
b1 I
b1100011 -
0;
1Y!
1X!
1T!
1S!
0k
0j
0h
0g
0Z
0Y
0W
0s
b100 (!
b1 p
b1100011 w!
b1 -
0X!
0T!
0S!
b1 w!
#110000
0!
0%
#115000
1!
1%
b100 )!
b1 v!
b1 3
b1 H
b1 <
b1011 (!
0y
b0 ~
b1 &!
b1 t
b1 ,
b1 G
b0 A
08
13!
0\!
0p!
1L
1\
b0 p
1m
b0 w!
b1001 I
11
b0 -
1q
0Y!
1i
0m
1o
1;
01
0q
1s
b101 (!
#120000
0!
0%
#125000
1!
1%
b101 )!
b110 (!
b10 &!
b0 t
1|
1w
1{
1:
16
1?
b0 ,
b10 G
1^!
1Z!
1D!
b110111 I!
b110111 >
1n!
1m!
1l!
1j!
1i!
0L
0o
b1010 p
b1 I
b1010 -
0;
1X!
1V!
0i
0s
b110 (!
b10 p
b10 -
0V!
#130000
0!
0%
#135000
1!
1%
b110 )!
b110111 t!
b10 z!
b10 5
b110111 *
b111 (!
0{
0w
b0 &!
1|
b10 #!
1x
17
b10 D
b0 G
06
0:
1[!
0Z!
0^!
b110111 I
b10 <
03!
12!
b11111 I!
b11111 >
1k!
0i!
1k
1j
1h
1g
b111000 p
b111000 -
0X!
1V!
1U!
1T!
#140000
0!
0%
#145000
1!
1%
b111 )!
b11111 u!
b11111 +
b11111 =
1@!
0>!
b11111 I
b1010 (!
0x
b0 #!
0|
b10 %!
b1 t
b1 ,
b10 F
0?
b0 D
07
0D!
0[!
b0 I!
b0 >
0n!
0m!
0l!
0k!
0j!
1L
1i
0g
b0 p
1o
b1 <
b110111 H
1;
b0 -
13!
02!
1s
0V!
0U!
0T!
1[
1Z
1X
1W
0o
1n
b1010 (!
12
0;
1r
0s
b1000 (!
#150000
0!
0%
#155000
1!
1%
b1000 )!
b1001 (!
b0 %!
b0 t
1}
1@
b0 ,
b0 F
1E!
0L
0n
b1010110 p
b1 H
b1010110 -
02
1X!
1W!
1U!
1S!
0[
0Z
0X
0W
0r
b1001 (!
b100000 p
b100000 -
0X!
0W!
0U!
1T!
0S!
#160000
0!
0%
#165000
1!
1%
b1001 )!
b1010 (!
1}
b10 #!
1$!
1E
b10 D
b110111 =
0@!
1>!
b10 <
03!
12!
#170000
0!
0%
#175000
1!
1%
b1010 )!
b100 (!
b0 #!
0$!
0}
b10 &!
b1 ~
1y
18
b1 A
b10 G
0@
0E
b0 D
b11111 =
1\!
0E!
1@!
0>!
1p!
b100000 w!
b1 <
b1 I
13!
02!
0k
0j
0i
0h
b10 p
b10 -
1X!
0T!
b10 w!
#180000
0!
0%
#185000
1!
1%
b100 )!
b10 v!
b10 3
b10 H
b10 <
b1011 (!
0y
b0 ~
b1 &!
b1 t
b1 ,
b1 G
b0 A
08
03!
12!
0\!
0p!
1L
0\
1[
b0 p
1n
b0 w!
b1001 I
12
b0 -
1r
0X!
1i
0n
1o
b1011 (!
1;
02
1s
0r
b101 (!
#190000
0!
0%
#195000
1!
1%
b101 )!
b110 (!
b10 &!
b0 t
1|
1w
1{
1:
16
1?
b0 ,
b10 G
1^!
1Z!
1D!
b110111 I!
b110111 >
1n!
1m!
1l!
1j!
1i!
0L
0o
b1011 p
b1 I
b1011 -
0;
1Y!
1X!
1V!
0i
0s
b110 (!
b11 p
b11 -
0V!
#200000
0!
0%
#205000
1!
1%
b110 )!
b11 z!
b11 5
b111 (!
0{
0w
b0 &!
1|
b10 #!
1x
17
b10 D
b0 G
06
0:
1[!
0Z!
0^!
b11111 I
b11 <
13!
b10 I!
b10 >
0n!
0l!
0j!
0i!
1k
1j
1i
1h
b100001 p
b100001 -
0X!
1T!
#210000
0!
0%
#215000
1!
1%
b111 )!
b10 u!
b10 +
b10 =
0C!
0A!
0@!
0?!
b10 I
b1010 (!
0x
b0 #!
0|
b10 %!
b1 t
b1 ,
b10 F
0?
b0 D
07
0D!
0[!
b0 I!
b0 >
0m!
1L
0l
0j
0i
0h
b0 p
1m
b10 <
b110111 H
11
b0 -
03!
1q
0Y!
0T!
1\
1Z
1X
1W
0m
1n
12
01
0q
1r
b1000 (!
#220000
0!
0%
#225000
1!
1%
b1000 )!
b1001 (!
b0 %!
b0 t
1}
1@
b0 ,
b0 F
1E!
0L
0n
b111001 p
b10 H
b111001 -
02
1Y!
1V!
1U!
1T!
0\
0Z
0X
0W
0r
b1001 (!
b100 p
b100 -
0Y!
1W!
0V!
0U!
0T!
#230000
0!
0%
#235000
1!
1%
b1001 )!
b1010 (!
1}
b10 #!
1$!
1E
b10 D
b110111 =
1C!
1A!
1?!
1>!
b11 <
13!
#240000
0!
0%
#245000
1!
1%
b1010 )!
b100 (!
b0 #!
0$!
0}
b10 &!
b1 ~
1y
18
b1 A
b10 G
0@
0E
b0 D
b10 =
1\!
0E!
0C!
0A!
0?!
0>!
1p!
b100 w!
b10 <
b1 I
03!
1l
0k
b11 p
b11 -
1Y!
1X!
0W!
b11 w!
#250000
0!
0%
#255000
1!
1%
b100 )!
b11 v!
b11 3
b11 H
b11 <
b1011 (!
0y
b0 ~
b1 &!
b1 t
b1 ,
b1 G
b0 A
08
13!
0\!
0p!
1L
1\
b0 p
1n
b0 w!
b1001 I
12
b0 -
1r
0Y!
0X!
1i
0n
1o
b1011 (!
1;
02
1s
0r
b101 (!
#260000
0!
0%
#265000
1!
1%
b101 )!
b110 (!
b10 &!
b0 t
1|
1w
1{
1:
16
1?
b0 ,
b10 G
1^!
1Z!
1D!
b110111 I!
b110111 >
1n!
1m!
1l!
1j!
1i!
0L
0o
b1100 p
b1 I
b1100 -
0;
1W!
1V!
0i
0s
b110 (!
b100 p
b100 -
0V!
#270000
0!
0%
#275000
1!
1%
b110 )!
b100 z!
b100 5
b111 (!
0{
0w
b0 &!
1|
b10 #!
1x
17
b10 D
b0 G
06
0:
1[!
0Z!
0^!
b10 I
b100 <
03!
02!
11!
b1010 I!
b1010 >
0n!
0l!
1k!
0j!
0i!
0l
1k
b101 p
b101 -
1Y!
#280000
0!
0%
#285000
1!
1%
b111 )!
b1010 u!
b1010 +
b1010 =
1@!
b1010 I
b1010 (!
0x
b0 #!
0|
b10 %!
b1 t
b1 ,
b10 F
0?
b0 D
07
0D!
0[!
b0 I!
b0 >
0m!
0k!
1L
1i
b0 p
1o
b11 <
b110111 H
1;
b0 -
13!
12!
01!
1s
0Y!
0W!
1Z
1X
1W
0o
1n
b1010 (!
12
0;
1r
0s
b1000 (!
#290000
0!
0%
#295000
1!
1%
b1000 )!
b1001 (!
b0 %!
b0 t
1}
1@
b0 ,
b0 F
1E!
0L
0n
b1000001 p
b11 H
b1000001 -
02
1Y!
1S!
0Z
0X
0W
0r
b1001 (!
b1101 p
b1101 -
1W!
1V!
0S!
#300000
0!
0%
#305000
1!
1%
b1001 )!
b1010 (!
1}
b10 #!
1$!
1E
b10 D
b110111 =
1C!
1A!
0@!
1?!
1>!
b100 <
03!
02!
11!
#310000
0!
0%
#315000
1!
1%
b1010 )!
b100 (!
b0 #!
0$!
0}
b10 &!
b1 ~
1y
18
b1 A
b10 G
0@
0E
b0 D
b1010 =
1\!
0E!
0C!
0A!
1@!
0?!
0>!
1p!
b1101 w!
b11 <
b1 I
13!
12!
01!
1l
0k
0i
b100 p
b100 -
0Y!
0V!
b100 w!
#320000
0!
0%
#325000
1!
1%
b100 )!
b100 v!
b100 3
b100 H
b100 <
b1011 (!
0y
b0 ~
b1 &!
b1 t
b1 ,
b1 G
b0 A
08
03!
02!
11!
0\!
0p!
1L
0\
0[
1Z
b0 p
1n
b0 w!
b1001 I
12
b0 -
1r
0W!
1i
0n
1o
b1011 (!
1;
02
1s
0r
b101 (!
#330000
0!
0%
#335000
1!
1%
b101 )!
b110 (!
b10 &!
b0 t
1|
1w
1{
1:
16
1?
b0 ,
b10 G
1^!
1Z!
1D!
b110111 I!
b110111 >
1n!
1m!
1l!
1j!
1i!
0L
0o
b1101 p
b1 I
b1101 -
0;
1Y!
1W!
1V!
0i
0s
b110 (!
b101 p
b101 -
0V!
#340000
0!
0%
#345000
1!
1%
b110 )!
b101 z!
b101 5
b111 (!
0{
0w
b0 &!
1|
b10 #!
1x
17
b10 D
b0 G
06
0:
1[!
0Z!
0^!
b1010 I
b101 <
13!
b101 I!
b101 >
0m!
0j!
0i!
0l
1k
1i
b1110 p
b1110 -
0Y!
1X!
1V!
#350000
0!
0%
#355000
1!
1%
b111 )!
b101 u!
b101 +
b101 =
1C!
0B!
1A!
0@!
b101 I
b1010 (!
0x
b0 #!
0|
b10 %!
b1 t
b1 ,
b10 F
0?
b0 D
07
0D!
0[!
b0 I!
b0 >
0n!
0l!
1L
1l
0k
1j
0i
b0 p
1o
b100 <
b110111 H
1;
b0 -
03!
1s
0X!
0W!
0V!
1\
1[
1X
1W
0o
1n
b1010 (!
12
0;
1r
0s
b1000 (!
#360000
0!
0%
#365000
1!
1%
b1000 )!
b1001 (!
b0 %!
b0 t
1}
1@
b0 ,
b0 F
1E!
0L
0n
b111100 p
b100 H
b111100 -
02
1W!
1V!
1U!
1T!
0\
0[
0X
0W
0r
b1001 (!
b1001 p
b1001 -
1Y!
0W!
0U!
0T!
#370000
0!
0%
#375000
1!
1%
b1001 )!
b1010 (!
1}
b10 #!
1$!
1E
b10 D
b110111 =
1B!
1?!
1>!
b101 <
13!
#380000
0!
0%
#385000
1!
1%
b1010 )!
b100 (!
b0 #!
0$!
0}
b10 &!
b1 ~
1y
18
b1 A
b10 G
0@
0E
b0 D
b101 =
1\!
0E!
0B!
0?!
0>!
1p!
b1001 w!
b100 <
b1 I
03!
0j
b101 p
b101 -
1W!
0V!
b101 w!
#390000
0!
0%
#395000
1!
1%
b100 )!
b101 v!
b101 3
b101 H
b101 <
b1011 (!
0y
b0 ~
b1 &!
b1 t
b1 ,
b1 G
b0 A
08
13!
0\!
0p!
1L
1\
b0 p
1n
b0 w!
b1001 I
12
b0 -
1r
0Y!
0W!
1i
0n
1o
b1011 (!
1;
02
1s
0r
b101 (!
#400000
0!
0%
#405000
1!
1%
b101 )!
b110 (!
b10 &!
b0 t
1|
1w
1{
1:
16
1?
b0 ,
b10 G
1^!
1Z!
1D!
b110111 I!
b110111 >
1n!
1m!
1l!
1j!
1i!
0L
0o
b1110 p
b1 I
b1110 -
0;
1X!
1W!
1V!
0i
0s
b110 (!
b110 p
b110 -
0V!
#410000
0!
0%
#415000
1!
1%
b110 )!
b110 z!
b110 5
b111 (!
0{
0w
b0 &!
1|
b10 #!
1x
17
b10 D
b0 G
06
0:
1[!
0Z!
0^!
b101 I
b110 <
03!
12!
b111 I!
b111 >
0j!
0i!
1j
b1010 p
b1010 -
0W!
1V!
#420000
0!
0%
#425000
1!
1%
b111 )!
b111 u!
b111 +
b111 =
1B!
b111 I
b1010 (!
0x
b0 #!
0|
b10 %!
b1 t
b1 ,
b10 F
0?
b0 D
07
0D!
0[!
b0 I!
b0 >
0n!
0m!
0l!
1L
1k
b0 p
1o
b101 <
b110111 H
1;
b0 -
13!
02!
1s
0X!
0V!
1[
1X
1W
0o
1n
b1010 (!
12
0;
1r
0s
b1000 (!
#430000
0!
0%
#435000
1!
1%
b1000 )!
b1001 (!
b0 %!
b0 t
1}
1@
b0 ,
b0 F
1E!
0L
0n
b111110 p
b101 H
b111110 -
02
1X!
1W!
1V!
1U!
1T!
0[
0X
0W
0r
b1001 (!
b1100 p
b1100 -
0X!
0U!
0T!
#440000
0!
0%
#445000
1!
1%
b1001 )!
b1010 (!
1}
b10 #!
1$!
1E
b10 D
b110111 =
1?!
1>!
b110 <
03!
12!
#450000
0!
0%
#455000
1!
1%
b1010 )!
b100 (!
b0 #!
0$!
0}
b10 &!
b1 ~
1y
18
b1 A
b10 G
0@
0E
b0 D
b111 =
1\!
0E!
0?!
0>!
1p!
b1100 w!
b101 <
b1 I
13!
02!
0k
0j
b110 p
b110 -
1X!
0V!
b110 w!
#460000
0!
0%
#465000
1!
1%
b100 )!
b110 v!
b110 3
b110 H
b110 <
b1011 (!
0y
b0 ~
b1 &!
b1 t
b1 ,
b1 G
b0 A
08
03!
12!
0\!
0p!
1L
0\
1[
b0 p
1n
b0 w!
b1001 I
12
b0 -
1r
0X!
0W!
1i
0n
1o
b1011 (!
1;
02
1s
0r
b101 (!
#470000
0!
0%
#475000
1!
1%
b101 )!
b110 (!
b10 &!
b0 t
1|
1w
1{
1:
16
1?
b0 ,
b10 G
1^!
1Z!
1D!
b110111 I!
b110111 >
1n!
1m!
1l!
1j!
1i!
0L
0o
b1111 p
b1 I
b1111 -
0;
1Y!
1X!
1W!
1V!
0i
0s
b110 (!
b111 p
b111 -
0V!
#480000
0!
0%
#485000
1!
1%
b110 )!
b111 z!
b111 5
b111 (!
0{
0w
b0 &!
1|
b10 #!
1x
17
b10 D
b0 G
06
0:
1[!
0Z!
0^!
b111 I
b111 <
13!
b1011000 I!
b1011000 >
0n!
0m!
0l!
1k!
0i!
1h!
1k
1j
b1101 p
b1101 -
0X!
1V!
#490000
0!
0%
#495000
1!
1%
b111 )!
b1011000 u!
b1011000 +
b1011000 =
0C!
0B!
0A!
1@!
1?!
1=!
b1011000 I
b1010 (!
0x
b0 #!
0|
b10 %!
b1 t
b1 ,
b10 F
0?
b0 D
07
0D!
0[!
b0 I!
b0 >
0k!
0j!
0h!
1L
0l
0k
0j
1i
1h
1f
b0 p
1o
b110 <
b110111 H
1;
b0 -
03!
1s
0Y!
0W!
0V!
1\
1X
1W
1o
b1010 (!
#500000
0!
0%
#505000
1!
1%
b1010 )!
b100 (!
b0 %!
b0 t
b10 &!
b1 ~
1y
18
b1 A
b10 G
b0 ,
b0 F
1\!
0L
1p!
0o
b10001111 p
b110 H
b1 I
b10001111 -
0;
1Y!
1X!
1W!
1V!
1R!
1l
0i
0h
0f
0\
0X
0W
0s
b100 (!
b111 p
b10001111 w!
b111 -
0V!
0R!
b111 w!
#510000
0!
0%
#515000
1!
1%
b100 )!
b111 v!
b111 3
b111 H
b111 <
b1011 (!
0y
b0 ~
b1 &!
b1 t
b1 ,
b1 G
b0 A
08
13!
0\!
0p!
1L
1\
b0 p
1n
b0 w!
b1001 I
12
b0 -
1r
0Y!
0X!
0W!
1i
0n
1o
b1011 (!
1;
02
1s
0r
b101 (!
#520000
0!
0%
#525000
1!
1%
b101 )!
b110 (!
b10 &!
b0 t
1|
1w
1{
1:
16
1?
b0 ,
b10 G
1^!
1Z!
1D!
b1011000 I!
b1011000 >
1k!
1j!
1h!
0L
0o
b10000 p
b1 I
b10000 -
0;
1U!
0i
0s
b110 (!
b1000 p
b1000 -
1V!
0U!
#530000
0!
0%
#535000
1!
1%
b110 )!
b1011000 t!
b1000 z!
b1000 5
b1011000 *
b111 (!
0{
0w
b0 &!
1|
b10 #!
1x
17
b10 D
b0 G
06
0:
1[!
0Z!
0^!
b1011000 I
b1000 <
03!
02!
01!
10!
b1100011 I!
b1100011 >
1n!
1m!
0k!
0j!
1i!
0l
1i
1h
1f
b1011111 p
b1011111 -
1Y!
1X!
1W!
1U!
1S!
#540000
0!
0%
#545000
1!
1%
b111 )!
b1100011 u!
b1100011 +
b1100011 =
1C!
1B!
0@!
0?!
1>!
b1100011 I
b1010 (!
0x
b0 #!
0|
b10 %!
b1 t
b1 ,
b10 F
0?
b0 D
07
0D!
0[!
b0 I!
b0 >
0n!
0m!
0i!
0h!
1L
1l
1k
0i
0h
1g
b0 p
1o
b111 <
b1011000 H
1;
b0 -
13!
12!
11!
00!
1s
0Y!
0X!
0W!
0V!
0U!
0S!
0\
0[
0Z
1Y
1X
1V
1o
b1010 (!
#550000
0!
0%
#555000
1!
1%
b1010 )!
b100 (!
b0 %!
b0 t
b10 &!
b1 ~
1y
18
b1 A
b10 G
b0 ,
b0 F
1\!
0L
1p!
0o
b10111011 p
b111 H
b1 I
b10111011 -
0;
1Y!
1X!
1V!
1U!
1T!
1R!
0k
0g
0f
1\
1[
1Z
0Y
0X
0V
0s
b100 (!
b1000 p
b10111011 w!
b1000 -
0Y!
0X!
0U!
0T!
0R!
b1000 w!
#560000
0!
0%
#565000
1!
1%
b100 )!
b1000 v!
b1000 3
b1000 H
b1000 <
b1011 (!
0y
b0 ~
b1 &!
b1 t
b1 ,
b1 G
b0 A
08
03!
02!
01!
10!
0\!
0p!
1L
0\
0[
0Z
1Y
b0 p
1n
b0 w!
b1001 I
12
b0 -
1r
0V!
1i
0n
1o
b1011 (!
1;
02
1s
0r
b101 (!
#570000
0!
0%
#575000
1!
1%
b101 )!
b110 (!
b10 &!
b0 t
1|
1w
1{
1:
16
1?
b0 ,
b10 G
1^!
1Z!
1D!
b1100011 I!
b1100011 >
1n!
1m!
1i!
1h!
0L
0o
b10001 p
b1 I
b10001 -
0;
1Y!
1U!
0i
0s
b110 (!
b1001 p
b1001 -
1V!
0U!
#580000
0!
0%
#585000
1!
1%
b110 )!
b1100011 t!
b1001 z!
b1001 5
b1100011 *
b111 (!
0{
0w
b0 &!
1|
b10 #!
1x
17
b10 D
b0 G
06
0:
1[!
0Z!
0^!
b1100011 I
b1001 <
13!
b10111 I!
b10111 >
1l!
1j!
0i!
0h!
1k
1g
1f
b1101011 p
b1101011 -
1X!
1T!
1S!
#590000
0!
0%
#595000
1!
1%
b111 )!
b10111 u!
b10111 +
b10111 =
1A!
1?!
0>!
0=!
b10111 I
b1010 (!
0x
b0 #!
0|
b10 %!
b1 t
b1 ,
b10 F
0?
b0 D
07
0D!
0[!
b0 I!
b0 >
0n!
0m!
0l!
0j!
1L
1j
1h
0g
0f
b0 p
1o
b1000 <
b1100011 H
1;
b0 -
03!
1s
0Y!
0X!
0V!
0T!
0S!
1\
1[
0Y
1W
1V
0o
1n
b1010 (!
12
0;
1r
0s
b1000 (!
#600000
0!
0%
#605000
1!
1%
b1000 )!
b1001 (!
b0 %!
b0 t
1}
1@
b0 ,
b0 F
1E!
0L
0n
b1111010 p
b1000 H
b1111010 -
02
1X!
1V!
1U!
1T!
1S!
0\
0[
1Y
0W
0V
0r
b1001 (!
b11111 p
b11111 -
1Y!
1W!
0T!
0S!
#610000
0!
0%
#615000
1!
1%
b1001 )!
b1010 (!
1}
b10 #!
1$!
1E
b10 D
b1100011 =
0A!
0?!
1>!
1=!
b1001 <
13!
#620000
0!
0%
#625000
1!
1%
b1010 )!
b100 (!
b0 #!
0$!
0}
b10 &!
b1 ~
1y
18
b1 A
b10 G
0@
0E
b0 D
b10111 =
1\!
0E!
1A!
1?!
0>!
0=!
1p!
b11111 w!
b1000 <
b1 I
03!
0k
0j
0h
b1001 p
b1001 -
0X!
0W!
0U!
b1001 w!
#630000
0!
0%
